<svg xmlns="http://www.w3.org/2000/svg" width="92.315" height="40.183" viewBox="0 0 92.315 40.183">
  <g id="Group_117" data-name="Group 117" transform="translate(18324.836 -10131)">
    <path id="Path_32" data-name="Path 32" d="M0,2.324c1.173-.069,2.726-.587,3.417-.035.725.587.621,2.209.863,3.348C4.8,8.26,5.315,10.883,5.936,13.885c1.657-3.382,3.209-6.419,4.728-9.49,1.277-2.554,1.242-2.588,4.417-2.312-.207.449-.345.828-.552,1.208-2.416,4.624-4.9,9.18-7.178,13.873-.759,1.518-1.9,1.38-3,1.173-.518-.1-1.07-1.035-1.208-1.691C2.036,12.125,1.035,7.57,0,3.014Z" transform="translate(-18324.836 10129.711)" fill="#324755"/>
    <path id="Path_33" data-name="Path 33" d="M185.206,0c-.38,3.071-.725,6.108-1.139,9.18-.276,2.036-.552,4.072-.966,6.074-.138.621-.587,1.484-1.035,1.587-.621.138-1.415-.345-2.485-.656a11.871,11.871,0,0,1-1.657.828A3.357,3.357,0,0,1,173.2,14.08a14.78,14.78,0,0,1,.966-5.315,4.91,4.91,0,0,1,5.28-3.279c.69.035,1.346.069,2.14.1a26.208,26.208,0,0,0,.483-3.175c.069-1.242.38-2.174,1.76-2.416Zm-9.249,12.182c.345.725.587,1.9,1.07,2.036a4.243,4.243,0,0,0,2.623-.518c.759-.345,1.76-4.521,1.311-5.211a1.415,1.415,0,0,0-.966-.518C177.751,7.592,176.267,9.214,175.957,12.182Z" transform="translate(-18438.26 10131)" fill="#324755"/>
    <path id="Path_35" data-name="Path 35" d="M193.125,61.914c1.277,6.281,2.519,12.286,3.762,18.291-3.624,1-4.452.587-5.142-2.416-1.691,0-3.382-.069-5.108.069A1.708,1.708,0,0,0,185.5,79a1.874,1.874,0,0,1-2.381,1.587c-1.035-.1-2.071-.035-3.417-.035.38-.932.656-1.691.966-2.45,1.9-4.521,3.865-9.042,5.625-13.6.725-1.864,1.691-2.864,3.8-2.588A29.7,29.7,0,0,0,193.125,61.914Zm-2.209,11.665c-.414-2.036-.794-3.9-1.277-6.177-.828,2.278-1.518,4.141-2.243,6.177Z" transform="translate(-18442.521 10090.482)" fill="#324755"/>
    <path id="Path_36" data-name="Path 36" d="M81.418,61.283C79.347,66.46,77.345,71.4,75.344,76.365a1.4,1.4,0,0,1-.173.311c-1.415,3.486-1.864,3.762-5.556,3.175a1.871,1.871,0,0,1-1.1-1.173c-1.173-4.21-2.416-8.455-3.382-12.734a3.957,3.957,0,0,0-2.8-3.244c-.9-.311-1.795-.656-2.933-1.07.38-.311.621-.621.863-.621,2.209-.035,4.452-.069,6.661-.035,2.036.035,2.623.69,3,2.761a87.8,87.8,0,0,0,1.967,9.111c1.139-3.037,2.416-6.039,3.313-9.111.587-2,1.553-2.864,3.624-2.485A12.73,12.73,0,0,0,81.418,61.283Z" transform="translate(-18363.736 10091.078)" fill="#324755"/>
    <path id="Path_37" data-name="Path 37" d="M155.793,65.494c-1.691-.138-3.278-.414-4.831-.38-.587,0-1.173.69-1.76,1.07a6.016,6.016,0,0,0,1.035,1.587c1.07.759,2.278,1.311,3.382,2.036,3.14,2.036,2.554,6.626-.1,8.524-3.348,2.381-7.04,1.9-10.7,1a1.2,1.2,0,0,1-.621-.966c.1-1.139.38-2.243.587-3.382,1.311.345,2.485.725,3.658,1a3.182,3.182,0,0,0,1.691.1,15.1,15.1,0,0,0,2.416-1.553,18.208,18.208,0,0,0-1.622-1.967c-.759-.587-1.726-.932-2.519-1.449a5.036,5.036,0,0,1-.345-8.317c2.864-2.174,6.143-2.243,9.49-1.38.345.1.69.863.656,1.311A16.027,16.027,0,0,1,155.793,65.494Z" transform="translate(-18417.957 10091.113)" fill="#324755"/>
    <path id="Path_50" data-name="Path 50" d="M119.5,80.667c1-6.384,1.967-12.424,2.968-18.567H127.4c-.38,2.519-.759,4.935-1.139,7.316-.518,3.313-1.1,6.626-1.587,9.974-.138,1.035-.587,1.346-1.553,1.277C121.985,80.632,120.915,80.667,119.5,80.667Z" transform="translate(-18403.096 10090.331)" fill="#324755"/>
    <path id="Path_52" data-name="Path 52" d="M144.077,21.933c-.035,3.244,1.242,3.555,6.35,1.726.483,1.518.035,2.519-1.553,2.933-.483.138-.966.345-1.449.483-4.383,1.1-7.42-1.933-6.281-6.315.69-2.726,2.105-4.8,5.039-5.384a4.114,4.114,0,0,1,4.072,1.139c1.277,1.346,1.173,3.071.932,4.693-.035.311-.863.656-1.346.69C147.942,22,146.078,21.933,144.077,21.933Zm4.417-2.036c-.1-1.208-.138-2.381-1.657-2.347-1.484,0-2.14.966-2.416,2.347Z" transform="translate(-18417.113 10121.008)" fill="#324755"/>
    <path id="Path_53" data-name="Path 53" d="M38.3,22.024c-.1,3.14,1.242,3.451,6.281,1.76.656,1.795-.242,2.657-1.829,3.106a8.268,8.268,0,0,1-1.829.414c-1.967.138-3.934-.035-5.039-1.9-1.38-2.347-.794-4.8.449-7.006a5.546,5.546,0,0,1,6.246-2.83,4.354,4.354,0,0,1,2.761,5.9,1.835,1.835,0,0,1-1.277.552C42.2,22.059,40.306,22.024,38.3,22.024Zm.276-2.071h3.969c.138-.138.242-.311.38-.449-.552-.621-1-1.622-1.657-1.795C39.685,17.331,39.1,18.573,38.581,19.953Z" transform="translate(-18347.818 10120.917)" fill="#324755"/>
    <path id="Path_58" data-name="Path 58" d="M111.542,5.918c.587.035,1.1.1,1.76.138V8.2c-.069.035-.173.173-.242.138-1.657-.207-2.45.414-2.485,2.209a31.3,31.3,0,0,1-.725,4.728c-.449,2.381-.518,2.416-3.209,1.864.414-2.8.863-5.625,1.311-8.524-.483-.1-.932-.242-1.553-.38.1-.69.242-1.38.345-2.174.518-.069,1-.138,1.484-.207C109.368,1.19,110.645.12,114.2.983c.035.621.069,1.311.1,2.243C112.267,2.915,111.059,3.571,111.542,5.918Z" transform="translate(-18394.518 10130.535)" fill="#324755"/>
    <path id="Path_59" data-name="Path 59" d="M219.432,15.97c3.52-1.415,5.108-.345,4.935,3.14-.242,4.555-3.693,6-7.661,4.831a1.493,1.493,0,0,1-.621-1.277c.414-3.382.863-6.8,1.518-10.146.1-.621,1.242-1.035,1.933-1.518.173.138.311.311.483.449C219.812,12.9,219.639,14.348,219.432,15.97Zm-1,6.281c2.485.242,3.451-.518,3.52-2.83.035-.656-.552-1.311-.863-1.967-.725.449-1.795.725-2.105,1.38A12.641,12.641,0,0,0,218.431,22.25Z" transform="translate(-18466.344 10123.796)" fill="#324755"/>
    <path id="Path_60" data-name="Path 60" d="M241.827,24.084h2.416c.311,1.691.621,3.417,1,5.453.725-1.484,1.415-2.692,1.9-4,.518-1.38,1.311-1.9,2.933-1.346-.414.828-.759,1.622-1.173,2.416-1.07,2.14-2.036,4.383-3.313,6.419a8.908,8.908,0,0,1-2.864,2.692c-1.346.759-2.071.138-1.76-1.449,2.761-.794,2.761-.794,2.105-3.727C242.621,28.432,242.276,26.327,241.827,24.084Z" transform="translate(-18482.596 10115.302)" fill="#324755"/>
    <path id="Path_61" data-name="Path 61" d="M75.079,17.475c-.621.207-1.277.38-1.9.656-1.415.621-2.519,1.415-2.554,3.279a34.544,34.544,0,0,1-.759,4.8H66.9c.587-3.762,1.139-7.489,1.726-11.25h2.347c.1.483.207,1.035.276,1.518,1.173-.656,2.347-1.311,3.831-2.174Z" transform="translate(-18368.648 10121.635)" fill="#324755"/>
    <path id="Path_62" data-name="Path 62" d="M91.891,16.3h3.037c-.587,3.8-1.173,7.489-1.76,11.25H90.2C90.752,23.754,91.339,20.1,91.891,16.3Z" transform="translate(-18383.908 10120.325)" fill="#324755"/>
    <path id="Path_63" data-name="Path 63" d="M125.6,27.3c.483-3.071.932-6.074,1.415-9.042.414-2.416.449-2.416,3.244-2.071-.414,2.8-.828,5.591-1.242,8.421a3.54,3.54,0,0,0-.138.483C128.879,27.371,129.051,27.648,125.6,27.3Z" transform="translate(-18407.09 10120.504)" fill="#324755"/>
    <path id="Path_66" data-name="Path 66" d="M132.891,5.361c-.794-1.07-1.657-1.933-1.518-2.174a5.586,5.586,0,0,1,2.105-1.9c.173-.1,1.484,1.139,1.38,1.484A10.618,10.618,0,0,1,132.891,5.361Z" transform="translate(-18410.861 10130.16)" fill="#324755"/>
    <path id="Path_67" data-name="Path 67" d="M97.233,4.686c-.311-.414-1-.932-1.07-1.553A1.7,1.7,0,0,1,98.027,1.2c.518,0,1.346.863,1.449,1.415C99.683,3.857,98.786,4.444,97.233,4.686Z" transform="translate(-18387.801 10130.214)" fill="#324755"/>
  </g>
</svg>
